<?xml version="1.0" encoding="UTF-8"?>

<export>
	<info>
		<creator>Admin</creator>
		<opencms_version>8.5.0</opencms_version>
		<createdate>Sat, 24 May 2014 16:38:44 GMT</createdate>
		<infoproject>Offline</infoproject>
		<export_version>7</export_version>
	</info>
	<module>
		<name>it.cd79.www.templates</name>
		<nicename><![CDATA[Templates module for CD79.IT]]></nicename>
		<class/>
		<description/>
		<version>0.9</version>
		<authorname><![CDATA[Davide Cavarretta]]></authorname>
		<authoremail><![CDATA[davide.cavarretta+opencms-maven-plugin@gmail.com]]></authoremail>
		<datecreated/>
		<userinstalled/>
		<dateinstalled/>
		<dependencies/>
		<exportpoints>
			<exportpoint uri="/system/modules/it.cd79.www.templates/classes/" destination="WEB-INF/classes/"/>
		</exportpoints>
		<resources>
			<resource uri="/system/modules/it.cd79.www.templates/"/>
			<resource uri="/system/workplace/resources/filetypes/servicepage.gif"/>
			<resource uri="/system/workplace/resources/filetypes/servicepage.png"/>
			<resource uri="/system/workplace/resources/filetypes/servicepage_big.png"/>
		</resources>
		<parameters/>
		<resourcetypes>
			<type class="org.opencms.file.types.CmsResourceTypeXmlContent" name="servicepage" id="1000">
				<param name="schema">/system/modules/it.cd79.www.templates/schemas/service_page.xsd</param>
			</type>
		</resourcetypes>
		<explorertypes>
			<explorertype name="servicepages" key="fileicon.servicepages" icon="menu.png" reference="xmlcontent">
				<newresource uri="newresource.jsp?page=servicepages" order="10" autosetnavigation="false" autosettitle="false" info="desc.servicepages"/>
			</explorertype>
			<explorertype name="servicepage" key="fileicon.servicepage" icon="servicepage.png" bigicon="servicepage_big.png" reference="xmlcontent">
				<newresource page="servicepages" uri="newresource_xmlcontent.jsp?newresourcetype=servicepage" order="27" autosetnavigation="true" autosettitle="true" info="desc.servicepage"/>
				<accesscontrol>
					<accessentry principal="ROLE.WORKPLACE_USER" permissions="+r+v+w+c"/>
				</accesscontrol>
			</explorertype>
		</explorertypes>
	</module>
	<files>
		<file>
			<destination>system/modules/it.cd79.www.templates</destination>
			<type>folder</type>
			<datelastmodified>Mon, 17 Sep 2012 20:45:48 GMT</datelastmodified>
			<userlastmodified>Admin</userlastmodified>
			<datecreated>Mon, 17 Sep 2012 20:45:48 GMT</datecreated>
			<usercreated>Admin</usercreated>
			<flags>0</flags>
			<properties/>
			<relations/>
			<accesscontrol/>
		</file>
		<file>
			<destination>system/modules/it.cd79.www.templates/classes</destination>
			<type>folder</type>
			<datelastmodified>Mon, 17 Sep 2012 20:45:48 GMT</datelastmodified>
			<userlastmodified>Admin</userlastmodified>
			<datecreated>Mon, 17 Sep 2012 20:45:48 GMT</datecreated>
			<usercreated>Admin</usercreated>
			<flags>0</flags>
			<properties/>
			<relations/>
			<accesscontrol/>
		</file>
		<file>
			<destination>system/modules/it.cd79.www.templates/classes/it</destination>
			<type>folder</type>
			<datelastmodified>Mon, 17 Sep 2012 20:45:48 GMT</datelastmodified>
			<userlastmodified>Admin</userlastmodified>
			<datecreated>Mon, 17 Sep 2012 20:45:48 GMT</datecreated>
			<usercreated>Admin</usercreated>
			<flags>0</flags>
			<properties/>
			<relations/>
			<accesscontrol/>
		</file>
		<file>
			<destination>system/modules/it.cd79.www.templates/classes/it/cd79</destination>
			<type>folder</type>
			<datelastmodified>Mon, 17 Sep 2012 20:45:49 GMT</datelastmodified>
			<userlastmodified>Admin</userlastmodified>
			<datecreated>Mon, 17 Sep 2012 20:45:49 GMT</datecreated>
			<usercreated>Admin</usercreated>
			<flags>0</flags>
			<properties/>
			<relations/>
			<accesscontrol/>
		</file>
		<file>
			<destination>system/modules/it.cd79.www.templates/classes/it/cd79/www</destination>
			<type>folder</type>
			<datelastmodified>Mon, 17 Sep 2012 20:45:49 GMT</datelastmodified>
			<userlastmodified>Admin</userlastmodified>
			<datecreated>Mon, 17 Sep 2012 20:45:49 GMT</datecreated>
			<usercreated>Admin</usercreated>
			<flags>0</flags>
			<properties/>
			<relations/>
			<accesscontrol/>
		</file>
		<file>
			<destination>system/modules/it.cd79.www.templates/classes/it/cd79/www/templates</destination>
			<type>folder</type>
			<datelastmodified>Mon, 17 Sep 2012 20:45:49 GMT</datelastmodified>
			<userlastmodified>Admin</userlastmodified>
			<datecreated>Mon, 17 Sep 2012 20:45:49 GMT</datecreated>
			<usercreated>Admin</usercreated>
			<flags>0</flags>
			<properties/>
			<relations/>
			<accesscontrol/>
		</file>
		<file>
			<source>system/modules/it.cd79.www.templates/classes/it/cd79/www/templates/workplace.properties</source>
			<destination>system/modules/it.cd79.www.templates/classes/it/cd79/www/templates/workplace.properties</destination>
			<type>plain</type>
			<datelastmodified>Mon, 05 Nov 2012 20:19:47 GMT</datelastmodified>
			<userlastmodified>Admin</userlastmodified>
			<datecreated>Sat, 06 Oct 2012 14:17:57 GMT</datecreated>
			<usercreated>Admin</usercreated>
			<flags>0</flags>
			<properties/>
			<relations/>
			<accesscontrol/>
		</file>
		<file>
			<destination>system/modules/it.cd79.www.templates/elements</destination>
			<type>folder</type>
			<datelastmodified>Mon, 17 Sep 2012 20:45:48 GMT</datelastmodified>
			<userlastmodified>Admin</userlastmodified>
			<datecreated>Mon, 17 Sep 2012 20:45:48 GMT</datecreated>
			<usercreated>Admin</usercreated>
			<flags>0</flags>
			<properties/>
			<relations/>
			<accesscontrol/>
		</file>
		<file>
			<destination>system/modules/it.cd79.www.templates/elements/commons</destination>
			<type>folder</type>
			<datelastmodified>Sat, 22 Sep 2012 14:50:35 GMT</datelastmodified>
			<userlastmodified>Admin</userlastmodified>
			<datecreated>Sat, 22 Sep 2012 14:50:35 GMT</datecreated>
			<usercreated>Admin</usercreated>
			<flags>0</flags>
			<properties/>
			<relations/>
			<accesscontrol/>
		</file>
		<file>
			<source>system/modules/it.cd79.www.templates/elements/commons/footer.jsp</source>
			<destination>system/modules/it.cd79.www.templates/elements/commons/footer.jsp</destination>
			<type>jsp</type>
			<datelastmodified>Mon, 05 Nov 2012 20:50:00 GMT</datelastmodified>
			<userlastmodified>Admin</userlastmodified>
			<datecreated>Sun, 21 Oct 2012 08:11:39 GMT</datecreated>
			<usercreated>Admin</usercreated>
			<flags>0</flags>
			<properties>
				<property type="shared">
					<name>export</name>
					<value><![CDATA[false]]></value>
				</property>
			</properties>
			<relations/>
			<accesscontrol/>
		</file>
		<file>
			<source>system/modules/it.cd79.www.templates/elements/commons/header.jsp</source>
			<destination>system/modules/it.cd79.www.templates/elements/commons/header.jsp</destination>
			<type>jsp</type>
			<datelastmodified>Mon, 05 Nov 2012 20:50:00 GMT</datelastmodified>
			<userlastmodified>Admin</userlastmodified>
			<datecreated>Sat, 22 Sep 2012 14:50:36 GMT</datecreated>
			<usercreated>Admin</usercreated>
			<flags>0</flags>
			<properties>
				<property type="shared">
					<name>export</name>
					<value><![CDATA[false]]></value>
				</property>
			</properties>
			<relations/>
			<accesscontrol/>
		</file>
		<file>
			<source>system/modules/it.cd79.www.templates/elements/commons/navigation.jsp</source>
			<destination>system/modules/it.cd79.www.templates/elements/commons/navigation.jsp</destination>
			<type>jsp</type>
			<datelastmodified>Mon, 05 Nov 2012 21:23:27 GMT</datelastmodified>
			<userlastmodified>Admin</userlastmodified>
			<datecreated>Sun, 21 Oct 2012 08:11:39 GMT</datecreated>
			<usercreated>Admin</usercreated>
			<flags>0</flags>
			<properties>
				<property type="shared">
					<name>export</name>
					<value><![CDATA[false]]></value>
				</property>
			</properties>
			<relations/>
			<accesscontrol/>
		</file>
		<file>
			<destination>system/modules/it.cd79.www.templates/formatters</destination>
			<type>folder</type>
			<datelastmodified>Mon, 17 Sep 2012 20:45:48 GMT</datelastmodified>
			<userlastmodified>Admin</userlastmodified>
			<datecreated>Mon, 17 Sep 2012 20:45:48 GMT</datecreated>
			<usercreated>Admin</usercreated>
			<flags>0</flags>
			<properties/>
			<relations/>
			<accesscontrol/>
		</file>
		<file>
			<destination>system/modules/it.cd79.www.templates/formatters/service_page</destination>
			<type>folder</type>
			<datelastmodified>Sat, 22 Sep 2012 14:50:36 GMT</datelastmodified>
			<userlastmodified>Admin</userlastmodified>
			<datecreated>Sat, 22 Sep 2012 14:50:36 GMT</datecreated>
			<usercreated>Admin</usercreated>
			<flags>0</flags>
			<properties/>
			<relations/>
			<accesscontrol/>
		</file>
		<file>
			<source>system/modules/it.cd79.www.templates/formatters/service_page/service_page.jsp</source>
			<destination>system/modules/it.cd79.www.templates/formatters/service_page/service_page.jsp</destination>
			<type>jsp</type>
			<datelastmodified>Mon, 05 Nov 2012 20:19:48 GMT</datelastmodified>
			<userlastmodified>Admin</userlastmodified>
			<datecreated>Mon, 24 Sep 2012 18:12:05 GMT</datecreated>
			<usercreated>Admin</usercreated>
			<flags>0</flags>
			<properties>
				<property type="shared">
					<name>export</name>
					<value><![CDATA[false]]></value>
				</property>
			</properties>
			<relations/>
			<accesscontrol/>
		</file>
		<file>
			<destination>system/modules/it.cd79.www.templates/resources</destination>
			<type>folder</type>
			<datelastmodified>Mon, 17 Sep 2012 20:45:48 GMT</datelastmodified>
			<userlastmodified>Admin</userlastmodified>
			<datecreated>Mon, 17 Sep 2012 20:45:48 GMT</datecreated>
			<usercreated>Admin</usercreated>
			<flags>0</flags>
			<properties/>
			<relations/>
			<accesscontrol/>
		</file>
		<file>
			<destination>system/modules/it.cd79.www.templates/resources/css</destination>
			<type>folder</type>
			<datelastmodified>Sat, 22 Sep 2012 14:50:36 GMT</datelastmodified>
			<userlastmodified>Admin</userlastmodified>
			<datecreated>Sat, 22 Sep 2012 14:50:36 GMT</datecreated>
			<usercreated>Admin</usercreated>
			<flags>0</flags>
			<properties/>
			<relations/>
			<accesscontrol/>
		</file>
		<file>
			<source>system/modules/it.cd79.www.templates/resources/css/en.css</source>
			<destination>system/modules/it.cd79.www.templates/resources/css/en.css</destination>
			<type>plain</type>
			<datelastmodified>Mon, 05 Nov 2012 20:19:48 GMT</datelastmodified>
			<userlastmodified>Admin</userlastmodified>
			<datecreated>Sun, 21 Oct 2012 08:11:39 GMT</datecreated>
			<usercreated>Admin</usercreated>
			<flags>0</flags>
			<properties/>
			<relations/>
			<accesscontrol/>
		</file>
		<file>
			<source>system/modules/it.cd79.www.templates/resources/css/general-service.css</source>
			<destination>system/modules/it.cd79.www.templates/resources/css/general-service.css</destination>
			<type>plain</type>
			<datelastmodified>Mon, 05 Nov 2012 20:19:49 GMT</datelastmodified>
			<userlastmodified>Admin</userlastmodified>
			<datecreated>Sat, 29 Sep 2012 13:08:25 GMT</datecreated>
			<usercreated>Admin</usercreated>
			<flags>0</flags>
			<properties/>
			<relations/>
			<accesscontrol/>
		</file>
		<file>
			<source>system/modules/it.cd79.www.templates/resources/css/general.css</source>
			<destination>system/modules/it.cd79.www.templates/resources/css/general.css</destination>
			<type>plain</type>
			<datelastmodified>Mon, 05 Nov 2012 21:25:53 GMT</datelastmodified>
			<userlastmodified>Admin</userlastmodified>
			<datecreated>Sat, 22 Sep 2012 14:50:36 GMT</datecreated>
			<usercreated>Admin</usercreated>
			<flags>0</flags>
			<properties/>
			<relations/>
			<accesscontrol/>
		</file>
		<file>
			<source>system/modules/it.cd79.www.templates/resources/css/it.css</source>
			<destination>system/modules/it.cd79.www.templates/resources/css/it.css</destination>
			<type>plain</type>
			<datelastmodified>Mon, 05 Nov 2012 20:19:49 GMT</datelastmodified>
			<userlastmodified>Admin</userlastmodified>
			<datecreated>Sun, 21 Oct 2012 08:11:40 GMT</datecreated>
			<usercreated>Admin</usercreated>
			<flags>0</flags>
			<properties/>
			<relations/>
			<accesscontrol/>
		</file>
		<file>
			<source>system/modules/it.cd79.www.templates/resources/css/modal-interior.css</source>
			<destination>system/modules/it.cd79.www.templates/resources/css/modal-interior.css</destination>
			<type>plain</type>
			<datelastmodified>Mon, 05 Nov 2012 20:19:49 GMT</datelastmodified>
			<userlastmodified>Admin</userlastmodified>
			<datecreated>Sat, 29 Sep 2012 12:55:41 GMT</datecreated>
			<usercreated>Admin</usercreated>
			<flags>0</flags>
			<properties/>
			<relations/>
			<accesscontrol/>
		</file>
		<file>
			<source>system/modules/it.cd79.www.templates/resources/css/modal.css</source>
			<destination>system/modules/it.cd79.www.templates/resources/css/modal.css</destination>
			<type>plain</type>
			<datelastmodified>Mon, 05 Nov 2012 20:19:49 GMT</datelastmodified>
			<userlastmodified>Admin</userlastmodified>
			<datecreated>Sat, 29 Sep 2012 12:55:41 GMT</datecreated>
			<usercreated>Admin</usercreated>
			<flags>0</flags>
			<properties/>
			<relations/>
			<accesscontrol/>
		</file>
		<file>
			<destination>system/modules/it.cd79.www.templates/resources/img</destination>
			<type>folder</type>
			<datelastmodified>Sat, 22 Sep 2012 14:50:36 GMT</datelastmodified>
			<userlastmodified>Admin</userlastmodified>
			<datecreated>Sat, 22 Sep 2012 14:50:36 GMT</datecreated>
			<usercreated>Admin</usercreated>
			<flags>0</flags>
			<properties/>
			<relations/>
			<accesscontrol/>
		</file>
		<file>
			<source>system/modules/it.cd79.www.templates/resources/img/arrow_right.png</source>
			<destination>system/modules/it.cd79.www.templates/resources/img/arrow_right.png</destination>
			<type>image</type>
			<datelastmodified>Mon, 05 Nov 2012 20:19:51 GMT</datelastmodified>
			<userlastmodified>Admin</userlastmodified>
			<datecreated>Sat, 22 Sep 2012 14:50:37 GMT</datecreated>
			<usercreated>Admin</usercreated>
			<flags>0</flags>
			<properties>
				<property type="shared">
					<name>image.size</name>
					<value><![CDATA[w:16,h:16]]></value>
				</property>
			</properties>
			<relations/>
			<accesscontrol/>
		</file>
		<file>
			<source>system/modules/it.cd79.www.templates/resources/img/header-en.png</source>
			<destination>system/modules/it.cd79.www.templates/resources/img/header-en.png</destination>
			<type>image</type>
			<datelastmodified>Mon, 05 Nov 2012 20:19:51 GMT</datelastmodified>
			<userlastmodified>Admin</userlastmodified>
			<datecreated>Sun, 21 Oct 2012 08:11:41 GMT</datecreated>
			<usercreated>Admin</usercreated>
			<flags>0</flags>
			<properties>
				<property type="shared">
					<name>image.size</name>
					<value><![CDATA[w:2265,h:180]]></value>
				</property>
			</properties>
			<relations/>
			<accesscontrol/>
		</file>
		<file>
			<source>system/modules/it.cd79.www.templates/resources/img/header-it.png</source>
			<destination>system/modules/it.cd79.www.templates/resources/img/header-it.png</destination>
			<type>image</type>
			<datelastmodified>Mon, 05 Nov 2012 20:19:52 GMT</datelastmodified>
			<userlastmodified>Admin</userlastmodified>
			<datecreated>Sun, 21 Oct 2012 08:11:41 GMT</datecreated>
			<usercreated>Admin</usercreated>
			<flags>0</flags>
			<properties>
				<property type="shared">
					<name>image.size</name>
					<value><![CDATA[w:2265,h:180]]></value>
				</property>
			</properties>
			<relations/>
			<accesscontrol/>
		</file>
		<file>
			<source>system/modules/it.cd79.www.templates/resources/img/home_16x16.png</source>
			<destination>system/modules/it.cd79.www.templates/resources/img/home_16x16.png</destination>
			<type>image</type>
			<datelastmodified>Mon, 05 Nov 2012 20:19:52 GMT</datelastmodified>
			<userlastmodified>Admin</userlastmodified>
			<datecreated>Sat, 22 Sep 2012 14:50:37 GMT</datecreated>
			<usercreated>Admin</usercreated>
			<flags>0</flags>
			<properties>
				<property type="shared">
					<name>image.size</name>
					<value><![CDATA[w:16,h:16]]></value>
				</property>
			</properties>
			<relations/>
			<accesscontrol/>
		</file>
		<file>
			<source>system/modules/it.cd79.www.templates/resources/img/lock_fill.svg</source>
			<destination>system/modules/it.cd79.www.templates/resources/img/lock_fill.svg</destination>
			<type>image</type>
			<datelastmodified>Mon, 05 Nov 2012 20:19:52 GMT</datelastmodified>
			<userlastmodified>Admin</userlastmodified>
			<datecreated>Sat, 22 Sep 2012 14:50:37 GMT</datecreated>
			<usercreated>Admin</usercreated>
			<flags>0</flags>
			<properties/>
			<relations/>
			<accesscontrol/>
		</file>
		<file>
			<source>system/modules/it.cd79.www.templates/resources/img/pause.svg</source>
			<destination>system/modules/it.cd79.www.templates/resources/img/pause.svg</destination>
			<type>image</type>
			<datelastmodified>Mon, 05 Nov 2012 20:19:52 GMT</datelastmodified>
			<userlastmodified>Admin</userlastmodified>
			<datecreated>Sat, 22 Sep 2012 14:50:37 GMT</datecreated>
			<usercreated>Admin</usercreated>
			<flags>0</flags>
			<properties/>
			<relations/>
			<accesscontrol/>
		</file>
		<file>
			<source>system/modules/it.cd79.www.templates/resources/img/play.svg</source>
			<destination>system/modules/it.cd79.www.templates/resources/img/play.svg</destination>
			<type>image</type>
			<datelastmodified>Mon, 05 Nov 2012 20:19:52 GMT</datelastmodified>
			<userlastmodified>Admin</userlastmodified>
			<datecreated>Sat, 22 Sep 2012 14:50:37 GMT</datecreated>
			<usercreated>Admin</usercreated>
			<flags>0</flags>
			<properties/>
			<relations/>
			<accesscontrol/>
		</file>
		<file>
			<source>system/modules/it.cd79.www.templates/resources/img/screwdriver.jpeg</source>
			<destination>system/modules/it.cd79.www.templates/resources/img/screwdriver.jpeg</destination>
			<type>image</type>
			<datelastmodified>Mon, 05 Nov 2012 20:19:53 GMT</datelastmodified>
			<userlastmodified>Admin</userlastmodified>
			<datecreated>Sun, 21 Oct 2012 08:11:41 GMT</datecreated>
			<usercreated>Admin</usercreated>
			<flags>0</flags>
			<properties>
				<property type="shared">
					<name>image.size</name>
					<value><![CDATA[w:102,h:102]]></value>
				</property>
			</properties>
			<relations/>
			<accesscontrol/>
		</file>
		<file>
			<source>system/modules/it.cd79.www.templates/resources/img/unlock_fill.svg</source>
			<destination>system/modules/it.cd79.www.templates/resources/img/unlock_fill.svg</destination>
			<type>image</type>
			<datelastmodified>Mon, 05 Nov 2012 20:19:53 GMT</datelastmodified>
			<userlastmodified>Admin</userlastmodified>
			<datecreated>Sat, 22 Sep 2012 14:50:37 GMT</datecreated>
			<usercreated>Admin</usercreated>
			<flags>0</flags>
			<properties/>
			<relations/>
			<accesscontrol/>
		</file>
		<file>
			<source>system/modules/it.cd79.www.templates/resources/img/x.svg</source>
			<destination>system/modules/it.cd79.www.templates/resources/img/x.svg</destination>
			<type>image</type>
			<datelastmodified>Mon, 05 Nov 2012 20:19:53 GMT</datelastmodified>
			<userlastmodified>Admin</userlastmodified>
			<datecreated>Sat, 29 Sep 2012 13:44:07 GMT</datecreated>
			<usercreated>Admin</usercreated>
			<flags>0</flags>
			<properties/>
			<relations/>
			<accesscontrol/>
		</file>
		<file>
			<destination>system/modules/it.cd79.www.templates/resources/img/filetype</destination>
			<type>folder</type>
			<datelastmodified>Sun, 21 Oct 2012 08:11:40 GMT</datelastmodified>
			<userlastmodified>Admin</userlastmodified>
			<datecreated>Sun, 21 Oct 2012 08:11:40 GMT</datecreated>
			<usercreated>Admin</usercreated>
			<flags>0</flags>
			<properties/>
			<relations/>
			<accesscontrol/>
		</file>
		<file>
			<source>system/modules/it.cd79.www.templates/resources/img/filetype/plain.gif</source>
			<destination>system/modules/it.cd79.www.templates/resources/img/filetype/plain.gif</destination>
			<type>image</type>
			<datelastmodified>Mon, 05 Nov 2012 20:19:51 GMT</datelastmodified>
			<userlastmodified>Admin</userlastmodified>
			<datecreated>Sun, 21 Oct 2012 08:11:40 GMT</datecreated>
			<usercreated>Admin</usercreated>
			<flags>0</flags>
			<properties>
				<property type="shared">
					<name>image.size</name>
					<value><![CDATA[w:16,h:16]]></value>
				</property>
			</properties>
			<relations/>
			<accesscontrol/>
		</file>
		<file>
			<source>system/modules/it.cd79.www.templates/resources/img/filetype/plain_big.png</source>
			<destination>system/modules/it.cd79.www.templates/resources/img/filetype/plain_big.png</destination>
			<type>image</type>
			<datelastmodified>Mon, 05 Nov 2012 20:19:51 GMT</datelastmodified>
			<userlastmodified>Admin</userlastmodified>
			<datecreated>Sun, 21 Oct 2012 08:11:40 GMT</datecreated>
			<usercreated>Admin</usercreated>
			<flags>0</flags>
			<properties>
				<property type="shared">
					<name>image.size</name>
					<value><![CDATA[w:24,h:24]]></value>
				</property>
			</properties>
			<relations/>
			<accesscontrol/>
		</file>
		<file>
			<source>system/modules/it.cd79.www.templates/resources/img/filetype/servicepage.gif</source>
			<destination>system/modules/it.cd79.www.templates/resources/img/filetype/servicepage.gif</destination>
			<type>image</type>
			<datelastmodified>Mon, 05 Nov 2012 20:19:51 GMT</datelastmodified>
			<userlastmodified>Admin</userlastmodified>
			<datecreated>Sun, 21 Oct 2012 08:11:40 GMT</datecreated>
			<usercreated>Admin</usercreated>
			<flags>0</flags>
			<properties>
				<property type="shared">
					<name>image.size</name>
					<value><![CDATA[w:16,h:16]]></value>
				</property>
			</properties>
			<relations/>
			<accesscontrol/>
		</file>
		<file>
			<source>system/modules/it.cd79.www.templates/resources/img/filetype/servicepage.png</source>
			<destination>system/modules/it.cd79.www.templates/resources/img/filetype/servicepage.png</destination>
			<type>image</type>
			<datelastmodified>Mon, 05 Nov 2012 20:19:51 GMT</datelastmodified>
			<userlastmodified>Admin</userlastmodified>
			<datecreated>Sun, 21 Oct 2012 08:11:40 GMT</datecreated>
			<usercreated>Admin</usercreated>
			<flags>0</flags>
			<properties>
				<property type="shared">
					<name>image.size</name>
					<value><![CDATA[w:16,h:16]]></value>
				</property>
			</properties>
			<relations/>
			<accesscontrol/>
		</file>
		<file>
			<source>system/modules/it.cd79.www.templates/resources/img/filetype/servicepage_big.png</source>
			<destination>system/modules/it.cd79.www.templates/resources/img/filetype/servicepage_big.png</destination>
			<type>image</type>
			<datelastmodified>Mon, 05 Nov 2012 20:19:51 GMT</datelastmodified>
			<userlastmodified>Admin</userlastmodified>
			<datecreated>Sun, 21 Oct 2012 08:11:40 GMT</datecreated>
			<usercreated>Admin</usercreated>
			<flags>0</flags>
			<properties>
				<property type="shared">
					<name>image.size</name>
					<value><![CDATA[w:24,h:24]]></value>
				</property>
			</properties>
			<relations/>
			<accesscontrol/>
		</file>
		<file>
			<destination>system/modules/it.cd79.www.templates/resources/js</destination>
			<type>folder</type>
			<datelastmodified>Sat, 22 Sep 2012 14:50:37 GMT</datelastmodified>
			<userlastmodified>Admin</userlastmodified>
			<datecreated>Sat, 22 Sep 2012 14:50:37 GMT</datecreated>
			<usercreated>Admin</usercreated>
			<flags>0</flags>
			<properties/>
			<relations/>
			<accesscontrol/>
		</file>
		<file>
			<source>system/modules/it.cd79.www.templates/resources/js/menu.js</source>
			<destination>system/modules/it.cd79.www.templates/resources/js/menu.js</destination>
			<type>plain</type>
			<datelastmodified>Mon, 05 Nov 2012 20:19:53 GMT</datelastmodified>
			<userlastmodified>Admin</userlastmodified>
			<datecreated>Sat, 22 Sep 2012 14:50:37 GMT</datecreated>
			<usercreated>Admin</usercreated>
			<flags>0</flags>
			<properties/>
			<relations/>
			<accesscontrol/>
		</file>
		<file>
			<source>system/modules/it.cd79.www.templates/resources/js/modal-interior.js</source>
			<destination>system/modules/it.cd79.www.templates/resources/js/modal-interior.js</destination>
			<type>plain</type>
			<datelastmodified>Mon, 05 Nov 2012 20:19:53 GMT</datelastmodified>
			<userlastmodified>Admin</userlastmodified>
			<datecreated>Sat, 29 Sep 2012 12:55:42 GMT</datecreated>
			<usercreated>Admin</usercreated>
			<flags>0</flags>
			<properties/>
			<relations/>
			<accesscontrol/>
		</file>
		<file>
			<source>system/modules/it.cd79.www.templates/resources/js/modal.js</source>
			<destination>system/modules/it.cd79.www.templates/resources/js/modal.js</destination>
			<type>plain</type>
			<datelastmodified>Mon, 05 Nov 2012 20:19:53 GMT</datelastmodified>
			<userlastmodified>Admin</userlastmodified>
			<datecreated>Sat, 29 Sep 2012 12:55:42 GMT</datecreated>
			<usercreated>Admin</usercreated>
			<flags>0</flags>
			<properties/>
			<relations/>
			<accesscontrol/>
		</file>
		<file>
			<destination>system/modules/it.cd79.www.templates/schemas</destination>
			<type>folder</type>
			<datelastmodified>Mon, 17 Sep 2012 20:45:48 GMT</datelastmodified>
			<userlastmodified>Admin</userlastmodified>
			<datecreated>Mon, 17 Sep 2012 20:45:48 GMT</datecreated>
			<usercreated>Admin</usercreated>
			<flags>0</flags>
			<properties/>
			<relations/>
			<accesscontrol/>
		</file>
		<file>
			<source>system/modules/it.cd79.www.templates/schemas/service_page.xsd</source>
			<destination>system/modules/it.cd79.www.templates/schemas/service_page.xsd</destination>
			<type>plain</type>
			<datelastmodified>Mon, 05 Nov 2012 20:19:53 GMT</datelastmodified>
			<userlastmodified>Admin</userlastmodified>
			<datecreated>Sat, 22 Sep 2012 14:50:38 GMT</datecreated>
			<usercreated>Admin</usercreated>
			<flags>0</flags>
			<properties/>
			<relations/>
			<accesscontrol/>
		</file>
		<file>
			<destination>system/modules/it.cd79.www.templates/templates</destination>
			<type>folder</type>
			<datelastmodified>Mon, 17 Sep 2012 20:45:48 GMT</datelastmodified>
			<userlastmodified>Admin</userlastmodified>
			<datecreated>Mon, 17 Sep 2012 20:45:48 GMT</datecreated>
			<usercreated>Admin</usercreated>
			<flags>0</flags>
			<properties/>
			<relations/>
			<accesscontrol/>
		</file>
		<file>
			<source>system/modules/it.cd79.www.templates/templates/landing_page.jsp</source>
			<destination>system/modules/it.cd79.www.templates/templates/landing_page.jsp</destination>
			<type>jsp</type>
			<datelastmodified>Mon, 05 Nov 2012 20:50:00 GMT</datelastmodified>
			<userlastmodified>Admin</userlastmodified>
			<datecreated>Mon, 29 Oct 2012 21:17:39 GMT</datecreated>
			<usercreated>Admin</usercreated>
			<flags>0</flags>
			<properties>
				<property type="shared">
					<name>export</name>
					<value><![CDATA[false]]></value>
				</property>
			</properties>
			<relations/>
			<accesscontrol/>
		</file>
		<file>
			<source>system/modules/it.cd79.www.templates/templates/main.jsp</source>
			<destination>system/modules/it.cd79.www.templates/templates/main.jsp</destination>
			<type>jsp</type>
			<datelastmodified>Mon, 05 Nov 2012 20:50:01 GMT</datelastmodified>
			<userlastmodified>Admin</userlastmodified>
			<datecreated>Sat, 22 Sep 2012 14:50:38 GMT</datecreated>
			<usercreated>Admin</usercreated>
			<flags>0</flags>
			<properties>
				<property type="shared">
					<name>export</name>
					<value><![CDATA[false]]></value>
				</property>
			</properties>
			<relations/>
			<accesscontrol/>
		</file>
		<file>
			<source>system/modules/it.cd79.www.templates/templates/service_page.jsp</source>
			<destination>system/modules/it.cd79.www.templates/templates/service_page.jsp</destination>
			<type>jsp</type>
			<datelastmodified>Mon, 05 Nov 2012 20:19:53 GMT</datelastmodified>
			<userlastmodified>Admin</userlastmodified>
			<datecreated>Sat, 22 Sep 2012 14:50:38 GMT</datecreated>
			<usercreated>Admin</usercreated>
			<flags>0</flags>
			<properties>
				<property type="shared">
					<name>export</name>
					<value><![CDATA[false]]></value>
				</property>
			</properties>
			<relations/>
			<accesscontrol/>
		</file>
		<file>
			<source>system/workplace/resources/filetypes/servicepage.gif</source>
			<destination>system/workplace/resources/filetypes/servicepage.gif</destination>
			<type>image</type>
			<datelastmodified>Sat, 06 Oct 2012 13:32:51 GMT</datelastmodified>
			<userlastmodified>Admin</userlastmodified>
			<datecreated>Sat, 06 Oct 2012 13:32:51 GMT</datecreated>
			<usercreated>Admin</usercreated>
			<flags>0</flags>
			<properties>
				<property>
					<name>Title</name>
					<value><![CDATA[servicepage]]></value>
				</property>
				<property type="shared">
					<name>image.size</name>
					<value><![CDATA[w:16,h:16]]></value>
				</property>
			</properties>
			<relations/>
			<accesscontrol/>
		</file>
		<file>
			<source>system/workplace/resources/filetypes/servicepage.png</source>
			<destination>system/workplace/resources/filetypes/servicepage.png</destination>
			<type>image</type>
			<datelastmodified>Sat, 06 Oct 2012 13:32:52 GMT</datelastmodified>
			<userlastmodified>Admin</userlastmodified>
			<datecreated>Sat, 06 Oct 2012 13:32:52 GMT</datecreated>
			<usercreated>Admin</usercreated>
			<flags>0</flags>
			<properties>
				<property>
					<name>Title</name>
					<value><![CDATA[servicepage]]></value>
				</property>
				<property type="shared">
					<name>image.size</name>
					<value><![CDATA[w:16,h:16]]></value>
				</property>
			</properties>
			<relations/>
			<accesscontrol/>
		</file>
		<file>
			<source>system/workplace/resources/filetypes/servicepage_big.png</source>
			<destination>system/workplace/resources/filetypes/servicepage_big.png</destination>
			<type>image</type>
			<datelastmodified>Sat, 06 Oct 2012 13:32:52 GMT</datelastmodified>
			<userlastmodified>Admin</userlastmodified>
			<datecreated>Sat, 06 Oct 2012 13:32:52 GMT</datecreated>
			<usercreated>Admin</usercreated>
			<flags>0</flags>
			<properties>
				<property>
					<name>Title</name>
					<value><![CDATA[servicepage_big]]></value>
				</property>
				<property type="shared">
					<name>image.size</name>
					<value><![CDATA[w:24,h:24]]></value>
				</property>
			</properties>
			<relations/>
			<accesscontrol/>
		</file>
	</files>
</export>
